{
	"d_number_rounding-to-nearest-10": 1759,
	"e_number_rounding-to-the-nearest-10": 1890,
	"g_number_rounding-to-the-nearest-10": 2336,
	"d_number_rounding-to-nearest-100": 1760,
	"d_number_rounding-to-nearest-1000": 1781,
	"e_number_rounding-to-the-nearest-100": 1927,
	"f_number_rounding-to-the-nearest-100": 2156,
	"g_number_rounding-to-the-nearest-100": 2414,
	"d_number_subtraction-blocks-within-1000": 1762,
	"e_number_subtraction-blocks-within-100": 1929,
	"e_number_subtraction-blocks-within-1000": 1932,
	"e_number_subtraction-abacus-within-10000": 1892,
	"e_number_subtraction-written-within-10000": 1942,
	"d_number_subtraction-number-line-within-20": 1784,
	"d_number_subtraction-written-within-100": 1783,
	"d_number_addition-adding-to-99": 1763,
	"d_number_addition-adding-to-999": 1828,
	"d_number_addition-adding-to-9999": 1826,
	"f_number_addition-adding-to-999": 2054,
	"e_number_addition-adding-to-999": 1894,
	"e_number_addition-adding-to-9999": 1919,
	"f_number_addition-adding-to-9999": 2056,
	"f_number_addition-adding-to-99999": 2052,
	"g_number_addition-adding-to-9999": 2370,
	"g_number_addition-adding-to-99999": 2345,
	"d_number_division-sharing": 1764,
	"d_number_division-dice": 1765,
	"d_number_division-remainders": 1861,
	"d_number_division-written-method": 1862,
	"d_number_division-written-with-remainders": 1768,
	"e_number_division-sharing": 1941,
	"e_number_division-dice": 1943,
	"e_number_division-remainders": 1944,
	"e_number_division-written-method": 2065,
	"e_number_division-written-with-remainders": 1946,
	"f_number_division-recording": 2169,
	"f_number_division-2-digit-with-carrying": 2062,
	"f_number_division-3-digit-with-carrying": 2055,
	"f_number_subtraction-number-line-within-1000": 2158,
	"f_number_subtraction-abacus-within-10000": 2049,
	"f_number_subtraction-abacus-within-100000": 2050,
	"f_number_subtraction-written-within-1000": 2159,
	"f_number_subtraction-written-within-10000": 2166,
	"g_number_subtraction-written-within-10000": 2416,
	"f_number_fractions_decimals-thousandths": 2084,
	"g_measurement_capacity-add-litres-and-millilitres": 2433,
	"d_number_subtraction-blocks-within-100": 1761,
	"g_number_division-6-digit-numbers": 2356,
	"f_number_special_roman_numerals-roman-numerals": 2081,
	"g_number_special_roman_numerals-roman-numerals": 2350,
	"f_space_statistics_and_probability_chance-probability-scale": 2143,
	"g_statistics_and_probability_chance-probability_scale-rainbow-wheel": 2334,
	"f_number_rounding-to-nearest-1000": 2048,
	"e_number_subtraction-written-within-100": 1935,
	"e_number_subtraction-written-within-1000": 1938,
	"f_number_square_triangular-triangular-number-patterns-positive": 2197,
	"f_number_prime_and_composite_prime-and-composite": 2198,
	"g_measurement_area-calculate-the-area-of-squares-and-rectangles": 2438,
	"e_number_subtraction-number-line-within-100": 1928,
	"d_number_subtraction-abacus-within-10000": 1825,
	"f_number_fractions_number-line": 2093,
	"e_number_fractions_decimals-reading-and-writing": 1953,
	"g_measurement_mass_adding-grams-fruit": 2441,
	"g_measurement_length_metric-units-and-conversions": 2442,
	"g_measurement_length_perimeter-dot-grid": 2387,
	"d_space_position-reading-legends-on-a-map": 1879,	
	"f_number_rounding-to-nearest-10": 2047,
	"g_number_subtraction-abacus-within-100000": 2338,
	"g_number_subtraction-abacus-within-1000000": 2339,
	"f_number_rounding-practice": 2366,
	"g_number_rounding-practice": 2420,
	"g_number_square_cubed_cubed-numbers": 2352,
	"e_number_fractions_fractions-as-division": 1908,
	"f_number_fractions_unit-fractions": 2087,
	"f_measurement_area-calculate-area-formula": 2360,
	"d_measurement_length_measuring-in-metres": 1809,
	"g_space_position-design-a-floor-plan": 2384,
	"f_measurement_mass-grams-in-one-kilogram": 2238,
	"d_number_addition-written-2-digits": 1785,
	"f_number_division-2-digit-no-remainders": 2363,
	"f_number_division-2-digit-with-remainders": 2364,
	"f_number_fractions_decimals-dividing": 2206,
	"e_number_multiplication_arrays": 1975,
	"d_space_position_following-pathways": 1849,
	"e_space_position-design-a-floor-plan": 2023,
	"f_number_negative_positive_positive-and-negative": 2200,
	"f_number_strategies_count-on-count-back": 2214,
	"d_number_fractions_hundredths": 1774,
	"d_number_numbers_to_999_place-value-to-999-abacus": 1834,
	"g_algebra_equations-balancing-equations": 2264,
	"g_algebra_equations-find-the-unknown-value": 2373,
	"e_algebra_patterns-counting-by-10s-to-9999-forwards": 1937,
	"d_algebra_patterns-counting-by-10s-to-999-backwards": 1876,
	"e_algebra_patterns-pattern-rules-backwards": 1934,
	"d_algebra_patterns-pattern-rules-backwards": 1875,
	"e_measurement_volume-count-the-cubes": 1980,
	"f_measurement_area-measuring-in-hectares": 2235,
	"e_measurement_length_measuring-in-millimetres": 2005,
	"d_space_statistics_and_probability_chance-spinner-investigation": 1850,
	"e_space_statistics_and_probability_chance-spinner-investigation": 1984,
	"f_space_statistics_and_probability_chance-spinner-investigation": 2144,	
	"f_number_division-3-digit-no-remainders": 2365,
	"f_number_division-3-digit-with-remainders": 2188,
	"e_number_division-written-with-remainders-carrying": 1951,
	"e_algebra_patterns-pattern-rules-forwards": 1931,
	"d_algebra_patterns-counting-by-10s-to-999-forwards": 1838,
	"d_algebra_patterns-counting-by-100s-forwards": 1838,
	"d_algebra_patterns-counting-by-100s-backwards": 1874,
	"e_algebra_patterns-counting-by-10s-to-9999-backwards": 1940,
	"e_algebra_patterns-counting-by-100s-forwards": 1976,
	"e_algebra_patterns-counting-by-100s-backwards": 1939,
	"f_number_square_triangular_square-numbers-pattern-increase": 2203,
	"f_number_prime_and_composite_number-divisibility-rules": 2080,
	"f_number_fraction_percentage-about": 2204,
	"e_number_strategies_count-on-count-back": 2067,
	"f_algebra_equations-order-of-operations": 2122,
	"f_algebra_equations-balancing-equations": 2117,
	"e_measurement_length_perimeter": 2094,
	"g_space_position-identifying-compass-direction": 2385,
	"f_algebra_functions-identifying-rules-multiplication": 2226,
	"e_number_fractions_decimals-multiplying-by-10-and-100": 1918,
	"e_number_fractions_tenths-and-hundredths": 1974,
	"f_number_square_triangular_square-numbers-pattern-decrease": 2201,
	"f_number_special_roman_numerals-roman-numerals-quiz": 2077,	
	"f_number_multiplication_extended": 2466,
	"g_number_multiplication_using-a-calculator": 2186,
	"d_number_numbers_to_9999_ordering-to-9999": 1796,
	"e_number_ordering_expanding_ordering-to-9999": 1926,
	"e_number_place_value_place-value-to-9999-abacus": 1910,
	"g_number_to_999999999_writing-large-numbers": 2394,
	"e_measurement_mass_add-grams": 1993,
	"g_measurement_mass_adding-grams-weights": 2271,
	"g_measurement_mass-grams-millilitres-and-cubic-centimetres": 2462,
	"d_measurement_length_measuring-in-millimetres": 1865,
	"e_space_position_compass-and-degrees": 2020,
	"f_space_position_compass-and-degrees": 2362,
	"f_space_money_cashless-transactions": 2146,
	"g_space_money_cashless-transactions": 2317,
	"d_space_2d_shapes_symmetry-and-tessellations": 1886,
	"f_space_2d_shapes_symmetry": 2170,	
	"g_number_addition-written-5-digits": 2412,
	"g_number_square_cubed_square-numbers-pattern-decrease": 2424,
	"g_space_money_best-buy-decisions": 2396,
	"g_number_negative_positive_positive-and-negative": 2421,
	"g_number_square_cubed_square-numbers-pattern-increase": 2425,
	"g_number_fractions_decimals-dividing": 2388,
	"g_number_strategies_estimate-by-rounding": 2432,
	"g_measurement_length_convert-centimetres-to-metres": 2450,
	"f_measurement_mass_add-grams": 2133,
	"f_number_square_triangular_numbers-triangular-numbers": 2060,
	"f_number_fraction_percentage-of-an-amount": 2205,	
	"g_number_fraction_percentage-about": 2379,	
	"f_number_strategies_inverse-operations": 2212,	
	"d_number_multiplication_extended": 1771,
	"d_number_multiplication_square-numbers": 1794,	
	"f_number_fractions_adding-and-subtracting": 2218,	
	"d_measurement_mass_add-grams": 1845,
	"f_measurement_length_measuring-in-centimetres": 2134,
	"g_number_rounding-to-the-nearest-1000": 2415,	
	"g_number_division-3-digit-numbers": 2347,
	"f_measurement_capacity-displacement": 2232,
	"e_number_fractions_decimals-patterns": 1898,
	"g_number_division-5-digit-numbers": 2346,
	"e_number_fractions_ordering": 1923,
	"g_number_strategies_inverse-operations": 2428,
	"f_algebra_equations-find-the-missing-number": 2223,
	"f_measurement_mass_converting-g-kg-and-t": 2132,
	"g_measurement_mass_converting-g-kg-and-t": 2319,
	"f_measurement_length_perimeter": 2241,
	"g_algebra_functions-applying-rules-in-tables": 2260,
	"g_number_to_999999999_ordering-large-numbers": 2244,	
	"d_number_addition-adding-to-20": 1827,
	"g_number_division-remainders-as-decimals": 2343,
	"d_measurement_area-count-the-area-centimetre-grid": 1882,
	"e_number_multiplication_square-numbers": 1921,	
	"d_number_subtraction-number-line-within-100": 1782,
	"f_number_square_triangular_square-numbers": 2367,
	"g_number_square_cubed_square-numbers": 2378,
	"g_number_prime_and_composite_number-divisibility-rules": 2358,
	"g_number_fraction_percentage-of-an-amount": 2426,
	"g_number_fraction_percentage-simple-interest": 2453,
	"f_number_fractions_decimals-reading-and-writing": 2071,
	"f_number_fractions_decimals-rounding": 2063,
	"g_number_fractions_decimals-rounding": 2180,
	"d_number_strategies_compensation": 1830,
	"d_number_strategies_count-on-count-back": 1769,
	"e_number_strategies_split-strategy": 1955,
	"e_number_strategies_bridging-to-ten": 1899,
	"e_number_strategies_compensation": 1900,
	"f_number_strategies_compensation": 2075,
	"f_number_strategies_split-strategy": 2210,
	"g_number_strategies_compensation": 2184,
	"e_number_multiplication_extended": 2070,
	"d_number_fractions_equivalent-fractions": 1832,
	"d_number_fractions_fractions-as-division": 1795,
	"e_number_fractions_mixed-numbers": 1924,
	"f_number_fractions_equivalent-fractions": 2097,
	"f_number_fractions_mixed-numbers-and-improper-fractions": 2095,
	"g_number_fractions_equivalent-fraction-wall": 2242,
	"d_number_numbers_to_999_ordering-to-999": 1797,
	"d_number_numbers_to_9999_place-value-to-9999-abacus": 1833,
	"f_number_to_999999_ordering-to-999999": 2105,	
	"d_number_strategies_bridging-to-ten": 1829,
	"f_algebra_patterns-make-a-number-pattern": 2224,
	"f_number_strategies_bridging-to-ten": 2090,
	"g_number_strategies_bridging-to-ten": 2182,
	"f_algebra_patterns-two-rules": 2222,
	"g_algebra_equations-find-the-missing-number": 2451,
	"d_algebra_patterns-pattern-rules-forwards": 1837,
	"e_algebra_equations-inverse-operations": 1982,	
	"d_measurement_volume-count-the-cubes": 1840,
	"f_measurement_volume-estimate-in-cubic-metres": 2130,
	"g_measurement_volume-estimate-in-cubic-metres": 2268,
	"g_measurement_mass-kilograms-and-tonnes": 2454,
	"f_measurement_length_metric-units-and-measurement-tools": 2135,
	"d_space_position_using-grid-references": 1852,
	"e_space_position_using-grid-references": 2017,
	"f_space_position-design-a-floor-plan": 2286,
	"d_space_money_how-much-change": 1819,
	"e_space_money_how-much-change": 2121,
	"e_space_money_rounding": 2019,
	"f_space_money_how-much-change": 2295,
	"d_space_2d_shapes_line-types": 1858,
	"e_space_2d_shapes_line-types": 2008,
	"d_space_3d_shapes_cross-sections": 1823,
	"d_space_3d_shapes_edges-corners-faces": 1878,
	"f_space_3d_shapes_edges-faces-vertices": 2167,
	"g_space_3d_shapes_cross-sections": 2403,
	"g_space_position_reading-a-map-with-a-scale": 2318,
	"f_algebra_patterns-complete-the-pattern": 2120,
	"g_algebra_patterns-complete-the-pattern": 2265,
	"g_space_statistics_and_probability_chance-probability-scale": 2312,
	"f_algebra_patterns-find-a-rule-for-a-pattern": 2119,
	"f_number_negative_and_positive-number-line": 2199,
	"g_number_prime_and_composite_factors": 2461,
	"d_number_strategies_inverse-operations": 1791,
	"e_number_addition-adding-to-99": 1917,
	"g_number_prime_and_composite_prime-and-composite": 2423,
	"g_number_special_roman_numerals-roman-numerals-quiz": 2351,
	"g_number_negative_and_positive-number-line": 2422,
	"g_number_fractions_decimals-reading-and-writing": 2354,
	"d_number_numbers_to_999_place-value-to-999": 1776,
	"g_algebra_patterns-make-a-number-pattern": 2411,
	"f_measurement_mass_reading-scales": 2237,
	"d_algebra_equations-inverse-operations": 1779,
	"e_measurement_area-count-the-area-centimetre-dot-paper": 1963,
	"f_number_addition-written-3-digits": 2168,
	"f_measurement_mass-convert-kilograms-and-tonnes": 2239,
	"d_number_addition-written-3-digits": 1786,
	"e_number_addition-written-3-digits": 1948,
	"f_number_prime_and_composite_factors": 2196,
	"f_number_fractions_decimals-multiplying-by-10-and-100": 2064,
	"g_number_fractions_decimals-multiplying-by-10-and-100": 2181,
	"d_number_strategies_doubles-near-doubles": 1787,
	"d_number_strategies_extensions": 1790,
	"e_number_strategies_extensions": 1973,
	"e_number_strategies_doubles-near-doubles": 1959,
	"g_algebra_patterns-two-rules": 2372,
	"d_measurement_capacity-adding-millilitres": 1867,
	"g_measurement_area_area-formulas": 2440,
	"e_measurement_length_measuring-in-metres": 2138,
	"g_measurement_length_reading-distances-on-a-map-km": 2386,
	"f_space_3d_shapes_identify-and-name": 2299,
	"d_space_money_make-the-total": 1853,
	"g_space_3d_shapes_identify-and-name": 2404,
	"g_number_subtraction-written-within-1000000": 2369,
	"f_number_subtraction-written-within-100000": 2051,
	"g_number_subtraction-written-within-100000": 2340,
	"d_measurement_time_reading-timelines": 1813,
	"f_measurement_length_reading-distances-on-a-map-km": 2240,
	"e_number_addition-written-4-digits": 1949,
	"g_measurement_volume-displacement": 2373,
	"d_measurement_capacity-add-litres-and-millilitres": 1801,
	"d_measurement_area-explore-area-with-pictures": 1804,
	"e_measurement_area-explore-area-with-pictures": 2088,
	"f_measurement_area-explore-area-with-pictures": 2233,
	"d_measurement_mass_half-kilogram": 1808,
	"e_measurement_mass-half-kilogram": 2089,
	"e_measurement_mass-grams-in-one-kilogram": 2000,
	"e_measurement_time_reading-timelines": 2013,
	"g_measurement_time_read-and-interpret-a-timeline": 2465,
	"e_space_money_make-the-total": 2004,
	"f_space_position_reading-a-map-with-a-scale": 2145,
	"f_number_fractions_decimals-subtracting": 2072,
	"e_number_strategies_inverse-operations": 1957,
	"f_number_fractions_comparing": 2219,
	"d_space_statistics_and_probability_chance-likelihood": 1877,
	"f_space_statistics_and_probability_chance-sample-space": 2284,
	"e_space_position_reading-legends-on-a-map": 2021,
	"f_algebra_patterns-exploring-patterns": 2124,
	"g_numbers_strategies_extensions": 2429,
	"e_space_position_following-pathways": 1990,
	"g_algebra_patterns-exploring-patterns": 2259,
	"e_number_addition-written-2-digits": 1947,
	"f_number_fraction_percentage-discounts": 2061,
	"e_number_fractions_decimals-subtracting": 1920,
	"f_number_fractions_decimals-adding": 2207,
	"g_number_fractions_decimals-adding": 2427,
	"g_numbers_strategies_reordering-addends": 2430,
	"f_number_addition-written-5-digits": 2174,
	"f_algebra_equations_property-of-zero": 2127,	
	"g_algebra_equations_property-of-zero": 2261,
	"d_measurement_volume-in-cubic-centimetres": 1800,
	"f_measurement_volume-calculate-formula": 2231,
	"f_measurement_area-measure-in-square-metres": 2234,
	"d_measurement_mass_read-mass-on-a-scale-kilograms": 1869,
	"e_measurement_mass_read-mass-on-a-scale-kilograms": 2001,
	"d_space_statistics_and_probability_chance-dice-investigation": 1848,
	"e_space_statistics_and_probability_chance-dice-investigation": 1971,
	"e_space_statistics_and_probability_chance-tree-diagrams": 1987,
	"g_space_statistics_and_probability_chance-predicting-probabilities": 2377,
	"f_space_position_using-coordinates": 2289,
	"f_space_position_reading-legends-on-a-map": 2287,
	"g_space_position_using-coordinates": 2301,
	"g_space_position_compass-and-degrees": 2447,
	"f_number_multiplication_multiples": 2216,
	"e_algebra_patterns-number-patterns": 1950,
	"e_measurement_capacity-adding-millilitres-upto-1litre": 1994,
	"f_measurement_capacity-adding-millilitres-upto-1litre": 2229,
	"g_measurement_capacity-convert-metric-units-of-capacity": 2434,
	"g_measurement_area-convert-units-of-area": 2439,
	"d_measurement_length_converting-from-cm-to-m": 1870,
	"d_space_position_left-right-above-below": 1851,
	"d_algebra_functions-rules-in-tables": 1799,
	"e_measurement_length_converting-from-cm-to-m": 2012,
	"f_measurement_length_convert-units-of-length-metric": 2276,	
	"e_number_fractions_decimals-adding": 1952,
	"f_measurement_length_measure-in-millimetres": 2275,
	"e_space_chance-record-using-simple-fractions": 2228,
	"f_space_chance-probability-as-fractions-or-decimals": 2283,
	"g_number_fractions_divide-to-find-equivalent-fractions": 2458,
	"f_numbers_strategies_extensions": 2209,
	"d_number_multiplication_tables": 1863,
	"d_number_fractions_ordering": 1881,
	"e_number_fractions_equivalent-fractions": 1925,
	"g_number_fractions_multiply-to-find-equivalent-fractions": 2402,
	"g_algebra_equations-order-of-operations": 2257,
	"e_measurement_length_centimetres-to-millimetres": 2091,
	"g_algebra_functions-identifying-rules-multiplication": 2373,
	"g_number_fraction_percentage-calculator": 2353,
	"d_space_2d_shapes_regular-and-irregular-2d-shapes": 1857,
	"e_number_multiplication_tables": 1901,
	"e_number_fractions_comparing": 2137,
	"e_measurement_area-square-metre": 1997,
	"d_measurement_mass_more-than-less-than-one-kilogram": 1807,
	"f_measurement_time_convert-units-of-time": 2280,
	"g_measurement_time_convert-units-of-time": 2405,
	"f_space_money_best-buy-decisions": 2293,
	"g_number_addition-written-6-digits": 2419,
	"g_number_to_999999999_place-value-large-numbers": 2243,	
	"e_measurement_capacity-add-litres-and-millilitres": 2085,
	"g_measurement_area-hectares-and-square-kilometres": 2269,
	"g_number_fractions_decimals-subtracting": 2357,
	"g_measurement_area-measure-in-hectares": 2376,
	"f_space_statistics_and_probability_chance-two-dice-experiment": 2282,
	"d_number_multiplication_contracted": 1831,
	"e_algebra_functions-rules-in-tables": 1954,
	"g_number_fractions_adding-and-subtracting": 2456,
	"g_number_fractions_decimals-contracted-multiplication": 2179,
	"d_numbers_strategies_reordering-addends": 1860,
	"d_number_strategies_split-strategy": 1770,
	"e_numbers_strategies_reordering-addends": 1962,
	"f_numbers_strategies_reordering-addends": 2211,
	"f_algebra_equations_associative-property": 2128,
	"g_algebra_equations_associative-property": 2263,
	"g_space_statistics_and_probability_chance-sample-space": 2294,
	"g_number_fraction_percentage-discounts": 2355,
	"e_number_multiplication_contracted": 1902,
	"f_number_multiplication_tables": 2078,
	"f_number_multiplication_multiplying-by-tens": 2083,
	"g_number_multiplication_multiplying-by-tens": 2190,
	"g_number_multiplication_multiplying-by-1-digit": 2189,
	"d_measurement_capacity-read-and-record-millilitres": 1841,
	"e_measurement_capacity-read-and-record-millilitres": 2037,
	"f_measurement_capacity-read-and-record-millilitres": 2131,
	"f_space_money_adding-money-vertical": 2151,
	"g_space_money_calculating-totals": 2320,
	"f_algebra_functions-rates-in-tables": 2114,
	"g_algebra_functions-identifying-rules-addition": 2253,
	"f_measurement_time_convert-analogue-to-digital": 2279,
	"f_measurement_time_read-and-interpret-a-timeline": 2278,
	"f_measurement_time_reading-timetables": 2140,
	"g_measurement_time_reading-timetables": 2285,
	"e_number_rounding-to-the-nearest-1000": 1891,
	"g_number_division-4-digit-numbers": 2348,
	"g_number_division-dividing-by-10-and-100": 2418,
	"d_numbers_strategies_jump-strategy": 1788,
	"d_number_fractions_fractions-of-shapes": 1793,
	"e_number_fractions_fractions-of-shapes": 1922,
	"f_number_fractions_common-fractions": 2100,
	"g_number_fractions_simplifying": 2192,
	"g_algebra_equations_commutative-property": 2262,
	"d_algebra_functions_applying-a-rule": 1780,
	"e_algebra_functions_applying-a-rule": 2079,
	"g_measurement_volume-calculate-formula": 2437,
	"g_measurement_volume-rectangular-prisms": 2436,
	"d_measurement_length_perimeter": 1811,
	"f_measurement_length_measuring-in-metres": 2270,
	"e_measurement_time_reading-a-calendar": 1968,
	"d_space_2d_shapes_angle-types": 1887,
	"d_space_2d_shapes_reflect-translate-rotate": 1821,
	"d_space_2d_shapes_sides-angles-and-symmetry": 1820,
	"e_space_2d_shapes_angle-types": 2011,
	"e_space_2d_shapes_sides-angles-and-symmetry": 2043,
	"e_space_3d_shapes_cross-sections": 2027,
	"f_space_3d_shapes_cross-sections": 2300,
	"f_algebra_functions-identifying-rules-addition": 2225,
	"f_algebra_functions-applying-rules-in-tables": 2112,
	"g_algebra_functions-identifying-rules-subtraction": 2252,
	"f_algebra_functions-identifying-rules-subtraction": 2125,
	"g_number_strategies_split-strategy": 2389,
	"d_measurement_time_reading-a-calendar": 1884,
	"g_number_subtraction-abacus-within-10000": 2337,
	"f_numbers_strategies_jump-strategy": 2213,
	"g_numbers_strategies_jump-strategy": 2431,
	"e_number_ordering_expanding_expanding-to-9999": 1912,
	"f_number_to_999999_expanding-to-999999": 2106,
	"f_number_to_999999_place-value-to-999999": 2104,
	"d_measurement_time_convert-analogue-to-digital": 1815,
	"f_measurement_time_reading-a-timeline": 2141,
	"g_measurement_time_convert-analogue-to-digital": 2445,
	"g_measurement_time_reading-a-timeline": 2292,
	"f_space_2d_shapes_line-types": 2150,
	"g_space_2d_shapes_line-types": 2400,
	"e_space_2d_shapes_symmetry-and-tessellations": 2042,
	"f_space_2d_shapes_introducing-angles": 2153,
	"f_space_2d_shapes_parts-of-circles": 2297,
	"f_space_2d_shapes_sides-angles-and-symmetry": 2298,
	"f_space_2d_shapes_trace-and-draw": 2161,
	"g_space_2d_shapes_circles": 2399,
	"g_space_2d_shapes_diagonals": 2311,
	"g_space_2d_shapes_introducing-angles": 2310,
	"g_space_2d_shapes_properties-of-polygons": 2398,
	"g_space_2d_shapes_trace-and-draw": 2313,	
	"g_number_addition-written-4-digits": 2449,
	"f_number_addition-written-4-digits": 2171,
	"e_numbers_strategies_jump-strategy": 1958,
	"e_space_2d_shapes_trace-and-draw": 2041,
	"f_number_fractions_decimals-contracted-multiplication": 2073,
	"f_algebra_functions_identifying-a-rule": 2129,
	"g_algebra_functions_identifying-a-rule": 2267,
	"f_measurement_capacity-add-litres-and-millilitres": 2359,
	"g_measurement_capacity-multiplying-millilitres-to-equal-1litre": 2464,
	"d_measurement_area-count-the-area-centimetre-dot-paper": 1842,
	"d_measurement_area-square-metre": 1868,
	"f_measurement_length_centimetres-to-millimetres": 2361,
	"d_measurement_time_read-time-to-the-minute-analogue": 1871,
	"d_measurement_time_reading-timetables": 1814,
	"e_measurement_time_convert-analogue-to-digital": 2116,
	"g_measurement_time_analogue_to_24_hour_time": 2444,
	"g_chance-frequency-and-relative-frequency": 2335,
	"f_space_2d_shapes_tessellations": 2155,
	"g_space_2d_shapes_tessellations": 2314,
	"d_space_3d_shapes_definitions": 1880,
	"d_space_3d_shapes_nets": 1889,
	"d_space_3d_shapes_views": 1864,
	"e_space_3d_shapes_definitions": 2044,
	"e_space_3d_shapes_edges-vertices-faces": 2045,
	"e_space_3d_shapes_nets": 2038,
	"e_space_3d_shapes_views": 2046,
	"f_space_3d_shapes_definitions": 2172,
	"f_space_3d_shapes_nets": 2162,
	"g_space_3d_shapes_definitions": 2326,
	"g_space_3d_shapes_nets": 2324,
	"g_space_3d_shapes_views": 2323,
	"g_number_fractions_decimals-extended-multiplication": 2390,
	"g_number_to_999999999_expanding-large-numbers": 2245,
	"e_measurement_volume-in-cubic-centimetres": 2113,
	"e_space_money_adding-money-vertical": 1991,
	"d_space_3d_shapes_drawing-and-tracing": 1888,
	"d_space_3d_shapes_shape-identification": 1822,
	"e_space_3d_shapes_drawing-and-tracing": 2031,
	"e_space_3d_shapes_shape-identification": 2030,
	"g_space_3d_shapes_drawing-and-tracing": 2325,
	"d_measurement_capacity-adding-millilitres-upto-1litre": 1866,
	"e_measurement_area-count-the-area-centimetre-grid": 1964,
	"e_measurement_mass_reading-scales": 1966,
	"e_space_2d_shapes_reflect-translate-rotate": 2149,
	"g_algebra_patterns-find-the-rule-for-a-pattern": 2254,
	"f_number_fractions_decimals-extended-multiplication": 2208,
	"d_measurement_length_measuring-in-centimetres": 1883,
	"d_number_numbers_to_9999_place-value-to-9999": 1775,
	"e_number_place_value_place-value-to-9999": 1978,
	"e_measurement_length_measuring-in-centimetres": 1996,
	"g_space_2d_shapes_rotational-symmetry": 2315,
	"f_space_3d_shapes_views": 2164,
	"g_algebra_functions-rates-in-tables": 2251,
	"f_number_multiplication_multiplying-by-1-digit": 2098,
	"g_measurement_length_perimeter": 2277,
	"e_measurement_time_read-time-to-the-minute-analogue": 2015,
	"e_measurement_time_reading-timetables": 2014,
	"f_space_money_calculating-totals": 2147,
	"g_measurement_length_record-measurements-in-mm-and-cm": 2307,
	"f_space_3d_shapes_drawing-and-tracing": 2165,
	"g_number_fractions_unit-fractions": 2193,
	"g_space_money_simple-interest": 2321,
	"g_number_fractions_multiplying-fractions": 2392,
	"d_number_multiplication_arrays": 1773,
	"e_space_data_picture-graphs": 2033,
	"f_space_data_picture-graphs": 2303,
	"d_number_strategies_strategies_extensions": 1798,
	"e_number_strategies_strategies_extensions": 1914,
	"f_number_strategies_strategies_extensions": 2110,
	"g_number_strategies_strategies_extensions": 2249,
	"f_number_multiplication_extended-2-digits": 2217,
	"g_number_multiplication_multiplying-by-2-digits": 2391,
	"g_number_fractions_common-fractions": 2195,
	"g_number_fractions_mixed-numbers-and-improper-fractions": 2194,
	"g_number_fractions_fractions-of-a-group": 2246,
	"f_number_to_999999_writing-to-999999": 2101,
	"d_number_strategies_strategies_reordering-factors": 1835,
	"d_number_strategies_strategies_doubles-relationships": 1836,
	"d_number_strategies_strategies_inverse-operations": 1777,
	"d_number_strategies_strategies_split-strategy": 1778,
	"e_number_strategies_strategies_doubles-relationships": 1913,
	"e_number_strategies_strategies_reordering-factors": 1915,
	"e_number_strategies_strategies_inverse-operations": 1979,
	"e_number_strategies_strategies_split-strategy": 1981,
	"f_number_strategies_strategies_doubles-relationships": 2107,
	"f_number_strategies_strategies_inverse-operations": 2220,
	"f_number_strategies_strategies_using-place-value": 2221,
	"g_number_strategies_strategies_doubles-relationships": 2247,
	"g_number_strategies_strategies_estimate-by-rounding": 2266,
	"g_number_strategies_strategies_inverse-operations": 2409,
	"g_number_strategies_strategies_using-place-value": 2410,
	"f_algebra_equations_commutative-property": 2126,
	"f_algebra_equations_identity-property": 2227,
	"g_algebra_equations_identity-property": 2457,
	"d_measurement_time_match-am-and-pm-to-24-hour-time": 1885,
	"e_measurement_time_match-am-and-pm-to-24-hour-time": 1998,
	"f_measurement_time_match-am-and-pm-to-24-hour-time": 2136,
	"g_measurement_time_match-am-and-pm-to-24-hour-time": 2308,
	"g_space_money_profit-and-loss": 2316,
	"d_space_2d_shapes_trace-and-draw": 1855,
	"e_space_2d_shapes_regular-and-irregular-2d-shapes": 2036,
	"f_space_2d_shapes_diagonals": 2154,
	"f_space_2d_shapes_properties-of-polygons": 2160,
	"f_space_2d_shapes_transformations": 2148,
	"g_space_2d_shapes_polygons": 2309,
	"g_space_2d_shapes_transformation": 2322,
	"e_space_data_reading-a-spreadsheet": 2035,
	"f_space_data_line-graphs": 2304,
	"f_space_data_pie-chart-or-sector-graph": 2176,
	"f_space_data_divided-bar-graphs": 2306,
	"f_space_data_dot-plots": 2177,
	"g_space_data_picture-graphs": 2446,
	"g_space_data_line-graphs": 2460,
	"g_space_data_pie-chart-or-sector-graph": 2330,
	"g_space_data_divided-bar-graphs": 2407,
	"g_space_data_dot-plots": 2331,
	"g_space_data_comparing-graphs": 2332,
	"d_number_multiplication_factors": 1792,
	"e_number_multiplication_factors": 1904,
	"e_measurement_capacity-adding-millilitres": 1988,
	"f_space_money_calculating-discounts": 2290,
	"g_space_money_calculating-discounts": 2397,
	"f_space_data_bar-or-column-graphs": 2175,
	"d_space_money_adding-money-vertical": 1854,
	"d_space_data_tally-and-graph": 1824,
	"e_space_data_tally-and-graph": 2034,
	"g_space_data_bar-or-column-graphs": 2329,
	"f_number_strategies_strategies_estimate-by-rounding": 2109,
	"e_number_strategies_strategies_area-model": 1916,
	"f_number_strategies_strategies_area-model": 2111,
	"g_number_strategies_strategies_area-model": 2250,
	"d_number_strategies_strategies_area-model": 1873,
	"g_measurement_mass_reading-scales": 2273,
	"g_space_3d_shapes_faces-edges-vertices": 2327,
	"e_space_data_bar-or-column-graphs": 2040,
	"f_space_data_find-the-average": 2178,
	"g_space_data_averages-mean-median-mode": 2333,
	"f_space_data_data-and-display-types": 2173,
	"g_space_data_data-types-and-data-displays": 2328
}